…
## Calculate Station-Level Cumulative Change

The function calc_change_cumu() can be used to calculate station-level
cumulative surface elevation change from SET data or vertical accretion
from MH data. The resulting data frame has the mean station-level
cumulative change for each sampling date.

``` r
calc_change_cumu(example_sets)
#> # A tibble: 104 × 9
#> # Groups:   network_code, park_code, site_name, station_code [4]
#>    network_code park_code site_name station_code event_date_UTC mean_cumu
#>    <chr>        <chr>     <chr>     <chr>        <date>             <dbl>
#>  1 NCBN         ASIS      Marsh 11  M11-1        2009-06-22         0    
#>  2 NCBN         ASIS      Marsh 11  M11-1        2010-06-08        -2.58 
#>  3 NCBN         ASIS      Marsh 11  M11-1        2011-04-07        16.9  
#>  4 NCBN         ASIS      Marsh 11  M11-1        2012-03-07         9.17 
#>  5 NCBN         ASIS      Marsh 11  M11-1        2012-08-28        -0.75 
#>  6 NCBN         ASIS      Marsh 11  M11-1        2012-12-18        -0.25 
#>  7 NCBN         ASIS      Marsh 11  M11-1        2013-06-20        -1.42 
#>  8 NCBN         ASIS      Marsh 11  M11-1        2014-06-03        -9.25 
#>  9 NCBN         ASIS      Marsh 11  M11-1        2014-12-01         0.917
#> 10 NCBN         ASIS      Marsh 11  M11-1        2015-04-23        -7.03 
#> # ℹ 94 more rows
#> # ℹ 3 more variables: sd_cumu <dbl>, se_cumu <dbl>, data_type <chr>
```
…
